…
    ## # A tibble: 1 x 5
    ##   ticketdatetime ticketchargedescription address location source
    ##            <int>                   <int>   <int>    <int>  <int>
    ## 1              0                       0   23536    99269      0

There appears to be a lot of missing data for the `address` and `location` variables. The data set is still viable for analysis as the other variables don't contain NAs. I can also see from the `str` function that the `address` variable contains street addresses. The first couple of `location` observations are NA so I will need to use a different summary operation to see what this variable holds.

``` r
citation_data %>%
  filter(!is.na(location)) %>%
  select(location)
```

    ## # A tibble: 23,488 x 1
    ##    location                                 
    ##    <chr>                                    
    ##  1 -722                                     
    ##  2 38.8844760460000000  -77.0929493950000000
    ##  3 -722                                     
    ##  4 38.8844703350000000  -77.0986130960000000
    ##  5 38.8871055580000000  -77.0952085300000000
    ##  6 38.8882261910000000  -77.0835202630000000
    ##  7 38.8533398800000000  -77.0552776250000000
    ##  8 38.8865002170000000  -77.0830921850000000
    ##  9 38.8800109260000000  -77.1138481280000000
    ## 10 -722                                     
    ## # ... with 23,478 more rows
…
Lets now examine where the citations were given the most. We learned earlier that there are 23,536 observations that don't include `address` data. We can examine this data first to determine a reason for these missing data points.

``` r
citation_data %>%
  filter(is.na(address)) %>%
  group_by(ticketchargedescription, address) %>%
  summarize(n = n()) %>%
  ungroup() %>%
  mutate(perc_na = n/sum(n)) %>%
  arrange(desc(n)) -> address_na
address_na
```

    ## # A tibble: 212 x 4
    ##    ticketchargedescription                     address     n perc_na
    ##    <chr>                                       <chr>   <int>   <dbl>
    ##  1 SPEEDING LIMIT VIOLATION                    <NA>     5782  0.246 
    ##  2 TRAFFIC:FAIL TO OBEY LAWFULLY ERECTED SIGNS <NA>     4127  0.175 
    ##  3 OPERATE UNREGISTERED VEHICLE                <NA>     1753  0.0745
    ##  4 TRAFFIC:IMPROPER RIGHT TURN ON RED          <NA>     1152  0.0489
    ##  5 NO DRIVERS LICENSE                          <NA>      978  0.0416
    ##  6 TRAFFIC:FAIL TO OBEY TRAFFIC LIGHTS         <NA>      754  0.0320
    ##  7 TRAFFIC:EXPIRED REJECTION STICKER           <NA>      657  0.0279
    ##  8 DRIVING W/SUSPENDED OR REVOKED LICENSE      <NA>      634  0.0269
    ##  9 SPEED: BUSINESS/RESIDENTIAL AREA            <NA>      613  0.0260
    ## 10 TRAFFIC: FAIL TO STOP/YIELD                 <NA>      583  0.0248
    ## # ... with 202 more rows
…
### Citation Locations - Most Common

Running the opposite of the previous summary function shows us the top locations where citations were received.

``` r
citation_data %>%
  filter(!is.na(address)) %>%
  group_by(address) %>%
  summarize(n = n()) %>%
  ungroup() %>%
  mutate(perc_na = n/sum(n)) %>%
  arrange(desc(n))
```

    ## # A tibble: 8,449 x 3
    ##    address                  n perc_na
    ##    <chr>                <int>   <dbl>
    ##  1 1400 COURTHOUSE RD N  2761 0.0278 
    ##  2 1200 S HAYES ST       2174 0.0219 
    ##  3 500 12TH ST S         1136 0.0114 
    ##  4 300 12TH ST S          704 0.00710
    ##  5 200 23RD ST S          695 0.00700
    ##  6 MTC                    694 0.00699
    ##  7 900 N TAYLOR ST        579 0.00584
    ##  8 2000 15TH ST N         574 0.00579
    ##  9 2000 14TH ST N         569 0.00573
    ## 10 3200 FAIRFAX DR.       561 0.00565
    ## # ... with 8,439 more rows
…
